“Comparing Model Accuracy at Different Horizons”
…
## # A mable: 1 x 6
##   mean    rw_drift      naive   snaive   ets           arima                    
##   <model> <model>       <model> <model>  <model>       <model>                  
## 1 <MEAN>  <RW w/ drift> <NAIVE> <SNAIVE> <ETS(M,Ad,M)> <ARIMA(1,1,2)(0,1,1)[12]>

Forecast time series

fable makes it just as easy to forecast all those models, too. Let’s forecast 6 months!

forecasts <- fabletools::forecast(models, h = 6)
forecasts

## # A fable: 36 x 4 [1M]
## # Key:     .model [6]
##    .model      month  value .distribution    
##    <chr>       <mth>  <dbl> <dist>           
##  1 mean     1994 Sep 25392. N(25392, 2.9e+07)
##  2 mean     1994 Oct 25392. N(25392, 2.9e+07)
##  3 mean     1994 Nov 25392. N(25392, 2.9e+07)
##  4 mean     1994 Dec 25392. N(25392, 2.9e+07)
##  5 mean     1995 Jan 25392. N(25392, 2.9e+07)
##  6 mean     1995 Feb 25392. N(25392, 2.9e+07)
##  7 rw_drift 1994 Sep 23403. N(23403, 4.6e+07)
##  8 rw_drift 1994 Oct 23450. N(23450, 9.3e+07)
##  9 rw_drift 1994 Nov 23497. N(23497, 1.4e+08)
## 10 rw_drift 1994 Dec 23544. N(23544, 1.9e+08)
## # … with 26 more rows
…
